{
  "extends": [
    "tslint:recommended",
    "tslint-react",
    "tslint-react-hooks",
    "tslint-config-prettier"
  ],
  "rules": {
    "ordered-imports": false,
    "object-literal-sort-keys": false,
    "variable-name": false,
    "no-require-imports": false,
    "no-var-requires": false,
    "no-console": true,
    "max-classes-per-file": false,
    "react-hooks-nesting": "error",
    "no-bitwise": false
  },
  "jsRules": {
    "ordered-imports": false,
    "object-literal-sort-keys": false,
    "variable-name": false,
    "no-require-imports": false,
    "no-var-requires": false,
    "no-console": false,
    "react-hooks-nesting": "error",
    "no-bitwise": false
  },
  "linterOptions": {
    "exclude": [
      "config/**/*.js",
      "node_modules/**/*.ts",
      "coverage/lcov-report/*.js"
    ]
  }
}
